<?xml version="1.0" encoding="UTF-8" standalone="no"?>
<!-- Created with Inkscape (http://www.inkscape.org/) -->

<svg
   width="256"
   height="256"
   viewBox="0 0 67.733334 67.733334"
   version="1.1"
   id="svg90"
   inkscape:version="1.1.2 (0a00cf5339, 2022-02-04)"
   sodipodi:docname="clearDental-sendClaims.svg"
   xmlns:inkscape="http://www.inkscape.org/namespaces/inkscape"
   xmlns:sodipodi="http://sodipodi.sourceforge.net/DTD/sodipodi-0.dtd"
   xmlns="http://www.w3.org/2000/svg"
   xmlns:svg="http://www.w3.org/2000/svg">
  <sodipodi:namedview
     id="namedview92"
     pagecolor="#ffffff"
     bordercolor="#666666"
     borderopacity="1.0"
     inkscape:pageshadow="2"
     inkscape:pageopacity="0.0"
     inkscape:pagecheckerboard="0"
     inkscape:document-units="mm"
     showgrid="false"
     units="px"
     width="256px"
     inkscape:zoom="1.1474186"
     inkscape:cx="295.01003"
     inkscape:cy="163.84604"
     inkscape:window-width="1280"
     inkscape:window-height="1377"
     inkscape:window-x="0"
     inkscape:window-y="0"
     inkscape:window-maximized="0"
     inkscape:current-layer="layer1" />
  <defs
     id="defs87">
    <style
       type="text/css"
       id="current-color-scheme">
      .ColorScheme-Text {
        color:#232629;
      }
      </style>
    <style
       type="text/css"
       id="current-color-scheme-3">
      .ColorScheme-Text {
        color:#232629;
      }
      .ColorScheme-Highlight {
        color:#3daee9;
      }
      </style>
    <style
       type="text/css"
       id="current-color-scheme-7">
      .ColorScheme-Text {
        color:#232629;
      }
      </style>
    <style
       type="text/css"
       id="current-color-scheme-5">
      .ColorScheme-Text {
        color:#232629;
      }
      </style>
    <style
       type="text/css"
       id="current-color-scheme-35">
      .ColorScheme-Text {
        color:#232629;
      }
      .ColorScheme-Highlight {
        color:#3daee9;
      }
      </style>
    <style
       type="text/css"
       id="current-color-scheme-6">
      .ColorScheme-Text {
        color:#232629;
      }
      </style>
  </defs>
  <g
     inkscape:label="Layer 1"
     inkscape:groupmode="layer"
     id="layer1">
    <path
       class="cls-3"
       d="m 18.787596,56.541821 a 9.4843305,9.3213903 0 0 1 0.65952,1.877661 c 0.251043,1.254561 -0.540382,1.626749 -1.4552,0.723465 A 9.7183541,9.5513933 0 0 1 16.740953,57.516198 C 11.532869,49.403364 4.4440873,25.754895 4.4015366,15.233302 c 0,-3.153134 0.6510113,-6.8248139 3.4975863,-8.7275745 C 11.3031,4.2433444 16.409067,5.2804537 19.978987,6.5517215 A 39.332952,38.657215 0 0 0 26.24656,8.4377439 17.590051,17.287854 0 0 0 34.19059,8.1157386 C 36.743573,7.4424561 35.89258,4.3938761 33.339597,5.0671586 28.637853,6.3217199 25.433859,5.1423927 21.05124,3.5825957 A 27.789216,27.3118 0 0 0 15.779331,2.2318421 C 12.464708,1.7509282 8.9713755,1.9934794 6.1077813,3.904601 2.2995819,6.4555292 1.1975441,10.967777 1.2060546,15.254197 1.2358384,26.377963 8.4905641,50.586816 14.026283,59.214024 a 10.011947,9.8399424 0 0 0 3.114638,3.232588 c 1.114803,0.652372 2.446607,0.907457 3.638001,0.301095 1.19139,-0.606378 1.770066,-1.873488 1.867933,-3.157322 a 9.429016,9.267026 0 0 0 -0.919075,-4.319863 76.415025,75.10222 0 0 1 -2.846576,-8.44739 c -1.37861,-6.398255 1.131823,-13.022339 8.390802,-13.678899 a 9.2503071,9.0913875 0 0 1 3.778415,0.418197 8.0844451,7.9455549 0 0 1 2.612554,1.421832 c 2.033876,1.672742 4.089027,-0.765287 2.055151,-2.42548 A 11.301203,11.107049 0 0 0 32.07587,30.572394 12.654284,12.436884 0 0 0 24.906244,30.354926 c -8.509941,2.166207 -10.531053,9.701952 -9.114149,17.00349 0.374439,1.944567 2.19131,7.372632 2.978481,9.1792"
       id="path28"
       style="fill:#135088;fill-rule:evenodd;stroke-width:0.421825" />
    <path
       class="cls-4"
       d="m 45.18969,58.277297 a 12.764914,12.545613 0 0 1 -1.497749,1.472012 c -0.302103,0.23419 -0.79568,0.577106 -1.178627,0.305284 -0.382948,-0.271824 -0.212748,-0.83638 -0.08935,-1.17928 a 11.552247,11.353779 0 0 1 0.850994,-1.714581 c 2.127485,-3.726035 4.467719,-8.602109 4.574094,-12.938696 0.06807,-2.801854 -0.872269,-5.616261 -3.574176,-6.950277 -2.518943,-1.25456 -5.591032,-0.673281 -7.914246,0.731826 -2.246625,1.359116 -0.561657,4.048057 1.701989,2.68477 1.344571,-0.811297 3.306112,-1.325654 4.791098,-0.59383 1.484985,0.731826 1.838146,2.546757 1.799851,4.05223 -0.09361,3.818055 -2.408313,8.455751 -4.31454,11.734333 v 0 0 a 9.5013506,9.3381178 0 0 0 -1.212666,2.755846 c -0.425497,1.580756 -0.425497,3.516961 1.089271,4.554069 1.51477,1.037094 3.765651,0.384723 5.105966,-0.660748 2.127487,-1.647644 4.054987,-4.244598 5.565502,-6.460986 a 50.276738,49.412986 0 0 0 3.880535,-7.050628 c 1.276491,-2.764224 2.387037,-5.607901 3.403977,-8.472473 1.016938,-2.864588 1.910482,-5.708249 2.727437,-8.602109 0.723343,-2.542584 1.37861,-5.11025 1.940267,-7.690465 C 65.451865,12.293448 55.890945,5.0169919 44.542937,9.4957798 a 75.644876,74.345301 0 0 1 -7.99509,2.8436622 30.99321,30.460749 0 0 1 -8.616315,1.124924 c -2.642338,0 -2.659358,3.140584 0,3.157322 a 35.694953,35.081716 0 0 0 12.186236,-2.040759 c 1.893463,-0.648199 3.74863,-1.400936 5.608051,-2.136934 a 13.96907,13.729083 0 0 1 6.382458,-1.078931 8.6758862,8.5268349 0 0 1 4.952786,1.948755 8.386548,8.2424676 0 0 1 2.629572,4.232048 13.335079,13.105983 0 0 1 0,6.067904 c -0.536126,2.471491 -1.165862,4.934603 -1.855167,7.372632 -0.787169,2.793495 -1.655183,5.574441 -2.616807,8.313566 -0.961625,2.739124 -2.042387,5.52843 -3.267818,8.200649 a 47.042961,46.234765 0 0 1 -3.74863,6.828987 38.422389,37.762295 0 0 1 -3.008264,3.947692"
       id="path30"
       style="fill:#2fb1d2;fill-rule:evenodd;stroke-width:0.421825" />
    <path
       class="cls-5"
       d="m 26.778431,62.638996 a 2.1657802,2.1285722 0 0 0 1.076509,1.158369 1.4934949,1.4678367 0 0 0 1.187135,0 1.5147697,1.488746 0 0 0 0.8127,-0.836379 2.1955652,2.1578454 0 0 0 -0.127642,-1.564017 c -1.433926,-3.245121 -2.884869,-7.853546 -1.859422,-11.366317 0.425496,-1.430208 1.442436,-3.006775 3.131658,-3.040219 1.689224,-0.0335 2.842322,1.526385 3.314625,2.973297 0.651009,1.990578 0.425497,4.269698 -0.02128,6.272808 a 27.729647,27.253254 0 0 1 -1.701987,4.926257 2.1572704,2.1202086 0 0 0 -0.140411,1.564017 1.4892399,1.4636548 0 0 0 1.991327,0.865652 2.1742902,2.136936 0 0 0 1.085017,-1.145836 c 1.804107,-3.997874 3.255053,-9.149945 1.850913,-13.457258 -0.927585,-2.831128 -3.246544,-5.231524 -6.446282,-5.16462 -3.199739,0.06686 -5.318714,2.509123 -6.144177,5.327701 -0.727601,2.509122 -0.523364,5.214802 0.03829,7.715563 a 32.886672,32.32168 0 0 0 1.957289,5.779344"
       id="path32"
       style="fill:#1a8bc3;fill-rule:evenodd;stroke-width:0.421825" />
    <path
       class="cls-3"
       d="m 25.225367,19.042979 a 4.2847558,4.211144 0 1 1 -4.301776,4.206965 4.280501,4.2069622 0 0 1 4.301776,-4.206965"
       id="path34"
       style="fill:#135088;fill-rule:evenodd;stroke-width:0.421825" />
    <path
       class="cls-4"
       d="m 42.743082,27.473632 a 3.4763114,3.4165886 0 1 1 -3.472057,3.416595 3.4763114,3.4165886 0 0 1 3.472057,-3.416595"
       id="path36"
       style="fill:#2fb1d2;fill-rule:evenodd;stroke-width:0.421825" />
    <path
       class="cls-5"
       d="m 29.93562,36.100841 a 3.2890925,3.2325862 0 1 1 -3.289094,3.232587 3.2890925,3.2325862 0 0 1 3.289094,-3.232587"
       id="path38"
       style="fill:#1a8bc3;fill-rule:evenodd;stroke-width:0.421825" />
    <path
       class="ColorScheme-Text"
       d="m 59.362486,40.503553 c -2.432078,0 -4.390028,2.217777 -4.390028,4.972602 0,2.754819 1.95795,4.972602 4.390028,4.972602 2.432073,0 4.390028,-2.217783 4.390028,-4.972602 0,-2.754825 -1.957955,-4.972602 -4.390028,-4.972602 z m -19.023458,9.945204 v 1.657532 h 8.780061 v 1.657532 h 1.463341 v 1.657539 h 1.463341 v 6.630134 H 50.58243 v 1.657532 h -1.463341 v 1.657538 h -8.780061 v 1.657532 H 53.509117 V 50.448757 Z m 19.023458,1.657532 c -0.945829,0 -2.103751,0.332468 -2.926687,0.708982 l 0.665935,1.515092 c 0.626041,-0.266062 1.550278,-0.566517 2.260752,-0.566517 3.242797,0 5.853369,2.957006 5.853369,6.630135 h -8.780056 v 1.657513 h 10.243402 v -1.657532 c 0,-4.591402 -3.263227,-8.287673 -7.316715,-8.287673 z m -17.560112,1.657532 c -0.515576,0 -1.003752,0.119343 -1.463346,0.304339 v 1.812928 c 0.411543,-0.271324 0.880279,-0.445044 1.389035,-0.459703 h 0.0029 c 0.02378,-3.32e-4 0.04756,-3.32e-4 0.07146,0 1.61636,0 2.926687,1.484206 2.926687,3.315064 0,1.830863 -1.310327,3.31507 -2.926687,3.31507 -0.535431,0 -1.031572,-0.175286 -1.463346,-0.459704 v 1.812928 c 0.459604,0.184934 0.947748,0.304339 1.463346,0.304339 2.424545,0 4.390028,-2.22631 4.390028,-4.972602 0,-2.746292 -1.965483,-4.972602 -4.390028,-4.972602 z"
       fill="currentColor"
       id="path1176"
       style="stroke-width:1.55741" />
  </g>
  <style
     id="current-color-scheme-2"
     type="text/css">.ColorScheme-Text { color: #232629; }</style>
</svg>
